<?xml version="1.0" encoding="UTF-8" standalone="no"?>
<graphml xmlns="http://graphml.graphdrawing.org/xmlns" xmlns:java="http://www.yworks.com/xml/yfiles-common/1.0/java" xmlns:sys="http://www.yworks.com/xml/yfiles-common/markup/primitives/2.0" xmlns:x="http://www.yworks.com/xml/yfiles-common/markup/2.0" xmlns:xsi="http://www.w3.org/2001/XMLSchema-instance" xmlns:y="http://www.yworks.com/xml/graphml" xmlns:yed="http://www.yworks.com/xml/yed/3" xsi:schemaLocation="http://graphml.graphdrawing.org/xmlns http://www.yworks.com/xml/schema/graphml/1.1/ygraphml.xsd">
  <!--Created by yEd 3.19.1.1-->
  <key attr.name="Description" attr.type="string" for="graph" id="d0"/>
  <key for="port" id="d1" yfiles.type="portgraphics"/>
  <key for="port" id="d2" yfiles.type="portgeometry"/>
  <key for="port" id="d3" yfiles.type="portuserdata"/>
  <key attr.name="url" attr.type="string" for="node" id="d4"/>
  <key attr.name="description" attr.type="string" for="node" id="d5"/>
  <key for="node" id="d6" yfiles.type="nodegraphics"/>
  <key for="graphml" id="d7" yfiles.type="resources"/>
  <key attr.name="url" attr.type="string" for="edge" id="d8"/>
  <key attr.name="description" attr.type="string" for="edge" id="d9"/>
  <key for="edge" id="d10" yfiles.type="edgegraphics"/>
  <graph edgedefault="directed" id="G">
    <data key="d0" xml:space="preserve"/>
    <node id="n0">
      <data key="d6">
        <y:ShapeNode>
          <y:Geometry height="513.396619047619" width="179.3584000000002" x="0.0" y="-897.1493015873016"/>
          <y:Fill color="#FFFF99" transparent="false"/>
          <y:BorderStyle color="#000000" raised="false" type="line" width="1.0"/>
          <y:NodeLabel alignment="left" autoSizePolicy="content" fontFamily="Dialog" fontSize="12" fontStyle="plain" hasBackgroundColor="false" hasLineColor="false" height="478.9375" horizontalTextPosition="center" iconTextGap="4" modelName="internal" modelPosition="l" textColor="#000000" verticalTextPosition="bottom" visible="true" width="151.15234375" x="4.0" xml:space="preserve" y="17.229559523809485">AbstractBaseScan

Abstract Properties:
* duration
* initial_az
* initial_el

Abstract Methods
* start_tracking()

Data Attributes:
* name
* start_mjd
* duration
* offset_az
* offet_el
* frontend_names[list]
* backend_names[list]
* pipeline_names[list]
* resuts{dict}
* subscans[list]
* ref to Antenna
* ref to DataAggregator

Methods:
* update_metadata()
* run()
* connect_components()
* configure_fontends()
* configure_backends()
* start_data_pipelines()
* run_subscans()
* cleanup()
* blocking_wait()</y:NodeLabel>
          <y:NodeLabel alignment="center" autoSizePolicy="content" fontFamily="Dialog" fontSize="12" fontStyle="plain" hasBackgroundColor="false" hasLineColor="false" hasText="false" height="4.0" horizontalTextPosition="center" iconTextGap="4" modelName="custom" textColor="#000000" verticalTextPosition="bottom" visible="true" width="4.0" x="87.6792000000001" y="254.69830952380948">
            <y:LabelModel>
              <y:SmartNodeLabelModel distance="4.0"/>
            </y:LabelModel>
            <y:ModelParameter>
              <y:SmartNodeLabelModelParameter labelRatioX="0.0" labelRatioY="0.0" nodeRatioX="0.0" nodeRatioY="0.0" offsetX="0.0" offsetY="0.0" upX="0.0" upY="-1.0"/>
            </y:ModelParameter>
          </y:NodeLabel>
          <y:Shape type="rectangle"/>
        </y:ShapeNode>
      </data>
    </node>
    <node id="n1">
      <data key="d6">
        <y:ShapeNode>
          <y:Geometry height="49.98399999999964" width="179.35839999999996" x="838.9904595829" y="-1000.3475555555555"/>
          <y:Fill color="#FFFF99" transparent="false"/>
          <y:BorderStyle color="#000000" raised="false" type="line" width="1.0"/>
          <y:NodeLabel alignment="left" autoSizePolicy="content" fontFamily="Dialog" fontSize="12" fontStyle="plain" hasBackgroundColor="false" hasLineColor="false" height="31.9375" horizontalTextPosition="center" iconTextGap="4" modelName="internal" modelPosition="l" textColor="#000000" verticalTextPosition="bottom" visible="true" width="134.693359375" x="4.0" xml:space="preserve" y="9.023249999999848">ScanOnSourceHO
* pipeline_names[list]</y:NodeLabel>
          <y:NodeLabel alignment="center" autoSizePolicy="content" fontFamily="Dialog" fontSize="12" fontStyle="plain" hasBackgroundColor="false" hasLineColor="false" hasText="false" height="4.0" horizontalTextPosition="center" iconTextGap="4" modelName="custom" textColor="#000000" verticalTextPosition="bottom" visible="true" width="4.0" x="87.67920000000004" y="22.991999999999848">
            <y:LabelModel>
              <y:SmartNodeLabelModel distance="4.0"/>
            </y:LabelModel>
            <y:ModelParameter>
              <y:SmartNodeLabelModelParameter labelRatioX="0.0" labelRatioY="0.0" nodeRatioX="0.0" nodeRatioY="0.0" offsetX="0.0" offsetY="0.0" upX="0.0" upY="-1.0"/>
            </y:ModelParameter>
          </y:NodeLabel>
          <y:Shape type="rectangle"/>
        </y:ShapeNode>
      </data>
    </node>
    <node id="n2">
      <data key="d6">
        <y:ShapeNode>
          <y:Geometry height="49.98399999999964" width="179.35839999999996" x="838.9904595829" y="-668.4741428571427"/>
          <y:Fill color="#FFFF99" transparent="false"/>
          <y:BorderStyle color="#000000" raised="false" type="line" width="1.0"/>
          <y:NodeLabel alignment="left" autoSizePolicy="content" fontFamily="Dialog" fontSize="12" fontStyle="plain" hasBackgroundColor="false" hasLineColor="false" height="31.9375" horizontalTextPosition="center" iconTextGap="4" modelName="internal" modelPosition="l" textColor="#000000" verticalTextPosition="bottom" visible="true" width="134.693359375" x="4.0" xml:space="preserve" y="9.023249999999848">ScanOnSourceTLE
* pipeline_names[list]</y:NodeLabel>
          <y:NodeLabel alignment="center" autoSizePolicy="content" fontFamily="Dialog" fontSize="12" fontStyle="plain" hasBackgroundColor="false" hasLineColor="false" hasText="false" height="4.0" horizontalTextPosition="center" iconTextGap="4" modelName="custom" textColor="#000000" verticalTextPosition="bottom" visible="true" width="4.0" x="87.67920000000004" y="22.991999999999848">
            <y:LabelModel>
              <y:SmartNodeLabelModel distance="4.0"/>
            </y:LabelModel>
            <y:ModelParameter>
              <y:SmartNodeLabelModelParameter labelRatioX="0.0" labelRatioY="0.0" nodeRatioX="0.0" nodeRatioY="0.0" offsetX="0.0" offsetY="0.0" upX="0.0" upY="-1.0"/>
            </y:ModelParameter>
          </y:NodeLabel>
          <y:Shape type="rectangle"/>
        </y:ShapeNode>
      </data>
    </node>
    <node id="n3">
      <data key="d6">
        <y:ShapeNode>
          <y:Geometry height="49.98399999999964" width="179.3584000000002" x="838.9904595829" y="-920.3634285714285"/>
          <y:Fill color="#FFFF99" transparent="false"/>
          <y:BorderStyle color="#000000" raised="false" type="line" width="1.0"/>
          <y:NodeLabel alignment="left" autoSizePolicy="content" fontFamily="Dialog" fontSize="12" fontStyle="plain" hasBackgroundColor="false" hasLineColor="false" height="31.9375" horizontalTextPosition="center" iconTextGap="4" modelName="internal" modelPosition="l" textColor="#000000" verticalTextPosition="bottom" visible="true" width="134.693359375" x="4.0" xml:space="preserve" y="9.023249999999848">ScanPointingHO
* pipeline_names[list]</y:NodeLabel>
          <y:NodeLabel alignment="center" autoSizePolicy="content" fontFamily="Dialog" fontSize="12" fontStyle="plain" hasBackgroundColor="false" hasLineColor="false" hasText="false" height="4.0" horizontalTextPosition="center" iconTextGap="4" modelName="custom" textColor="#000000" verticalTextPosition="bottom" visible="true" width="4.0" x="87.67920000000004" y="22.991999999999848">
            <y:LabelModel>
              <y:SmartNodeLabelModel distance="4.0"/>
            </y:LabelModel>
            <y:ModelParameter>
              <y:SmartNodeLabelModelParameter labelRatioX="0.0" labelRatioY="0.0" nodeRatioX="0.0" nodeRatioY="0.0" offsetX="0.0" offsetY="0.0" upX="0.0" upY="-1.0"/>
            </y:ModelParameter>
          </y:NodeLabel>
          <y:Shape type="rectangle"/>
        </y:ShapeNode>
      </data>
    </node>
    <node id="n4">
      <data key="d6">
        <y:ShapeNode>
          <y:Geometry height="49.98399999999964" width="179.3584000000002" x="838.9904595829" y="-315.9134285714284"/>
          <y:Fill color="#FFFF99" transparent="false"/>
          <y:BorderStyle color="#000000" raised="false" type="line" width="1.0"/>
          <y:NodeLabel alignment="left" autoSizePolicy="content" fontFamily="Dialog" fontSize="12" fontStyle="plain" hasBackgroundColor="false" hasLineColor="false" height="31.9375" horizontalTextPosition="center" iconTextGap="4" modelName="internal" modelPosition="l" textColor="#000000" verticalTextPosition="bottom" visible="true" width="134.693359375" x="4.0" xml:space="preserve" y="9.023249999999848">ScanPointingTLE
* pipeline_names[list]</y:NodeLabel>
          <y:NodeLabel alignment="center" autoSizePolicy="content" fontFamily="Dialog" fontSize="12" fontStyle="plain" hasBackgroundColor="false" hasLineColor="false" hasText="false" height="4.0" horizontalTextPosition="center" iconTextGap="4" modelName="custom" textColor="#000000" verticalTextPosition="bottom" visible="true" width="4.0" x="87.67920000000004" y="22.991999999999848">
            <y:LabelModel>
              <y:SmartNodeLabelModel distance="4.0"/>
            </y:LabelModel>
            <y:ModelParameter>
              <y:SmartNodeLabelModelParameter labelRatioX="0.0" labelRatioY="0.0" nodeRatioX="0.0" nodeRatioY="0.0" offsetX="0.0" offsetY="0.0" upX="0.0" upY="-1.0"/>
            </y:ModelParameter>
          </y:NodeLabel>
          <y:Shape type="rectangle"/>
        </y:ShapeNode>
      </data>
    </node>
    <node id="n5">
      <data key="d6">
        <y:ShapeNode>
          <y:Geometry height="49.98399999999964" width="179.3584000000002" x="840.3208" y="-204.99199999999985"/>
          <y:Fill color="#FFFF99" transparent="false"/>
          <y:BorderStyle color="#000000" raised="false" type="line" width="1.0"/>
          <y:NodeLabel alignment="left" autoSizePolicy="content" fontFamily="Dialog" fontSize="12" fontStyle="plain" hasBackgroundColor="false" hasLineColor="false" height="17.96875" horizontalTextPosition="center" iconTextGap="4" modelName="internal" modelPosition="l" textColor="#000000" verticalTextPosition="bottom" visible="true" width="106.48046875" x="4.0" xml:space="preserve" y="16.00762499999982">... Add more TBD</y:NodeLabel>
          <y:NodeLabel alignment="center" autoSizePolicy="content" fontFamily="Dialog" fontSize="12" fontStyle="plain" hasBackgroundColor="false" hasLineColor="false" hasText="false" height="4.0" horizontalTextPosition="center" iconTextGap="4" modelName="custom" textColor="#000000" verticalTextPosition="bottom" visible="true" width="4.0" x="87.67920000000004" y="22.99199999999982">
            <y:LabelModel>
              <y:SmartNodeLabelModel distance="4.0"/>
            </y:LabelModel>
            <y:ModelParameter>
              <y:SmartNodeLabelModelParameter labelRatioX="0.0" labelRatioY="0.0" nodeRatioX="0.0" nodeRatioY="0.0" offsetX="0.0" offsetY="0.0" upX="0.0" upY="-1.0"/>
            </y:ModelParameter>
          </y:NodeLabel>
          <y:Shape type="rectangle"/>
        </y:ShapeNode>
      </data>
    </node>
    <node id="n6">
      <data key="d6">
        <y:ShapeNode>
          <y:Geometry height="78.23999999999995" width="179.3584000000002" x="239.22845768508898" y="-994.9116666666666"/>
          <y:Fill color="#FFFF99" transparent="false"/>
          <y:BorderStyle color="#000000" raised="false" type="line" width="1.0"/>
          <y:NodeLabel alignment="left" autoSizePolicy="content" fontFamily="Dialog" fontSize="12" fontStyle="plain" hasBackgroundColor="false" hasLineColor="false" height="59.875" horizontalTextPosition="center" iconTextGap="4" modelName="internal" modelPosition="l" textColor="#000000" verticalTextPosition="bottom" visible="true" width="129.619140625" x="4.0" xml:space="preserve" y="9.182500000000005">AbstractTrackCoord

Methods:
* update_metadata()</y:NodeLabel>
          <y:NodeLabel alignment="center" autoSizePolicy="content" fontFamily="Dialog" fontSize="12" fontStyle="plain" hasBackgroundColor="false" hasLineColor="false" hasText="false" height="4.0" horizontalTextPosition="center" iconTextGap="4" modelName="custom" textColor="#000000" verticalTextPosition="bottom" visible="true" width="4.0" x="87.6792000000001" y="37.120000000000005">
            <y:LabelModel>
              <y:SmartNodeLabelModel distance="4.0"/>
            </y:LabelModel>
            <y:ModelParameter>
              <y:SmartNodeLabelModelParameter labelRatioX="0.0" labelRatioY="0.0" nodeRatioX="0.0" nodeRatioY="0.0" offsetX="0.0" offsetY="0.0" upX="0.0" upY="-1.0"/>
            </y:ModelParameter>
          </y:NodeLabel>
          <y:Shape type="rectangle"/>
        </y:ShapeNode>
      </data>
    </node>
    <node id="n7">
      <data key="d6">
        <y:ShapeNode>
          <y:Geometry height="78.23999999999995" width="179.3584000000002" x="239.22845768508898" y="-364.23031746031745"/>
          <y:Fill color="#FFFF99" transparent="false"/>
          <y:BorderStyle color="#000000" raised="false" type="line" width="1.0"/>
          <y:NodeLabel alignment="left" autoSizePolicy="content" fontFamily="Dialog" fontSize="12" fontStyle="plain" hasBackgroundColor="false" hasLineColor="false" height="59.875" horizontalTextPosition="center" iconTextGap="4" modelName="internal" modelPosition="l" textColor="#000000" verticalTextPosition="bottom" visible="true" width="134.529296875" x="4.0" xml:space="preserve" y="9.182500000000005">AbstractOffsetPattern

Methods:
* update_metadata()</y:NodeLabel>
          <y:NodeLabel alignment="center" autoSizePolicy="content" fontFamily="Dialog" fontSize="12" fontStyle="plain" hasBackgroundColor="false" hasLineColor="false" hasText="false" height="4.0" horizontalTextPosition="center" iconTextGap="4" modelName="custom" textColor="#000000" verticalTextPosition="bottom" visible="true" width="4.0" x="87.6792000000001" y="37.120000000000005">
            <y:LabelModel>
              <y:SmartNodeLabelModel distance="4.0"/>
            </y:LabelModel>
            <y:ModelParameter>
              <y:SmartNodeLabelModelParameter labelRatioX="0.0" labelRatioY="0.0" nodeRatioX="0.0" nodeRatioY="0.0" offsetX="0.0" offsetY="0.0" upX="0.0" upY="-1.0"/>
            </y:ModelParameter>
          </y:NodeLabel>
          <y:Shape type="rectangle"/>
        </y:ShapeNode>
      </data>
    </node>
    <node id="n8" yfiles.foldertype="group">
      <data key="d4" xml:space="preserve"/>
      <data key="d6">
        <y:ProxyAutoBoundsNode>
          <y:Realizers active="0">
            <y:GroupNode>
              <y:Geometry height="604.4313492063492" width="209.35840000000013" x="478.4569153701779" y="-604.4313492063492"/>
              <y:Fill color="#F5F5F5" transparent="false"/>
              <y:BorderStyle color="#000000" type="dashed" width="1.0"/>
              <y:NodeLabel alignment="right" autoSizePolicy="node_width" backgroundColor="#EBEBEB" borderDistance="0.0" fontFamily="Dialog" fontSize="15" fontStyle="plain" hasLineColor="false" height="21.4609375" horizontalTextPosition="center" iconTextGap="4" modelName="internal" modelPosition="t" textColor="#000000" verticalTextPosition="bottom" visible="true" width="209.35840000000013" x="0.0" xml:space="preserve" y="0.0">ACU Program Offset </y:NodeLabel>
              <y:Shape type="roundrectangle"/>
              <y:State closed="false" closedHeight="50.0" closedWidth="50.0" innerGraphDisplayEnabled="false"/>
              <y:Insets bottom="15" bottomF="15.0" left="15" leftF="15.0" right="15" rightF="15.0" top="15" topF="15.0"/>
              <y:BorderInsets bottom="0" bottomF="2.3809523804629862E-4" left="0" leftF="0.0" right="0" rightF="0.0" top="0" topF="1.48809523352611E-5"/>
            </y:GroupNode>
            <y:GroupNode>
              <y:Geometry height="50.0" width="50.0" x="0.0" y="60.0"/>
              <y:Fill color="#F5F5F5" transparent="false"/>
              <y:BorderStyle color="#000000" type="dashed" width="1.0"/>
              <y:NodeLabel alignment="right" autoSizePolicy="node_width" backgroundColor="#EBEBEB" borderDistance="0.0" fontFamily="Dialog" fontSize="15" fontStyle="plain" hasLineColor="false" height="21.4609375" horizontalTextPosition="center" iconTextGap="4" modelName="internal" modelPosition="t" textColor="#000000" verticalTextPosition="bottom" visible="true" width="65.201171875" x="-7.6005859375" xml:space="preserve" y="0.0">Folder 1</y:NodeLabel>
              <y:Shape type="roundrectangle"/>
              <y:State closed="true" closedHeight="50.0" closedWidth="50.0" innerGraphDisplayEnabled="false"/>
              <y:Insets bottom="5" bottomF="5.0" left="5" leftF="5.0" right="5" rightF="5.0" top="5" topF="5.0"/>
              <y:BorderInsets bottom="0" bottomF="0.0" left="0" leftF="0.0" right="0" rightF="0.0" top="0" topF="0.0"/>
            </y:GroupNode>
          </y:Realizers>
        </y:ProxyAutoBoundsNode>
      </data>
      <graph edgedefault="directed" id="n8:">
        <node id="n8::n0">
          <data key="d6">
            <y:ShapeNode>
              <y:Geometry height="119.48999999999995" width="179.3584000000002" x="493.4569153701779" y="-567.9703968253968"/>
              <y:Fill color="#FFFF99" transparent="false"/>
              <y:BorderStyle color="#000000" raised="false" type="line" width="1.0"/>
              <y:NodeLabel alignment="left" autoSizePolicy="content" fontFamily="Dialog" fontSize="12" fontStyle="plain" hasBackgroundColor="false" hasLineColor="false" height="101.78125" horizontalTextPosition="center" iconTextGap="4" modelName="internal" modelPosition="l" textColor="#000000" verticalTextPosition="bottom" visible="true" width="142.685546875" x="4.0" xml:space="preserve" y="8.854375000000005">OffsetPatternOnSource

Properties:
* duration

Data Attributes:
* subscans[list]</y:NodeLabel>
              <y:NodeLabel alignment="center" autoSizePolicy="content" fontFamily="Dialog" fontSize="12" fontStyle="plain" hasBackgroundColor="false" hasLineColor="false" hasText="false" height="4.0" horizontalTextPosition="center" iconTextGap="4" modelName="custom" textColor="#000000" verticalTextPosition="bottom" visible="true" width="4.0" x="87.6792000000001" y="57.745000000000005">
                <y:LabelModel>
                  <y:SmartNodeLabelModel distance="4.0"/>
                </y:LabelModel>
                <y:ModelParameter>
                  <y:SmartNodeLabelModelParameter labelRatioX="0.0" labelRatioY="0.0" nodeRatioX="0.0" nodeRatioY="0.0" offsetX="0.0" offsetY="0.0" upX="0.0" upY="-1.0"/>
                </y:ModelParameter>
              </y:NodeLabel>
              <y:Shape type="rectangle"/>
            </y:ShapeNode>
          </data>
        </node>
        <node id="n8::n1">
          <data key="d6">
            <y:ShapeNode>
              <y:Geometry height="186.73999999999995" width="179.3584000000002" x="493.4569153701779" y="-418.48031746031745"/>
              <y:Fill color="#FFFF99" transparent="false"/>
              <y:BorderStyle color="#000000" raised="false" type="line" width="1.0"/>
              <y:NodeLabel alignment="left" autoSizePolicy="content" fontFamily="Dialog" fontSize="12" fontStyle="plain" hasBackgroundColor="false" hasLineColor="false" height="157.65625" horizontalTextPosition="center" iconTextGap="4" modelName="internal" modelPosition="l" textColor="#000000" verticalTextPosition="bottom" visible="true" width="132.935546875" x="4.0" xml:space="preserve" y="14.541875000000005">OffsetPatternPointing

Properties:
* duration

Data Attributes:
* subscans[list]
* arm_length
* time_per_arm
* offset_az_offsource
* offset_el_offsource</y:NodeLabel>
              <y:NodeLabel alignment="center" autoSizePolicy="content" fontFamily="Dialog" fontSize="12" fontStyle="plain" hasBackgroundColor="false" hasLineColor="false" hasText="false" height="4.0" horizontalTextPosition="center" iconTextGap="4" modelName="custom" textColor="#000000" verticalTextPosition="bottom" visible="true" width="4.0" x="87.6792000000001" y="91.37">
                <y:LabelModel>
                  <y:SmartNodeLabelModel distance="4.0"/>
                </y:LabelModel>
                <y:ModelParameter>
                  <y:SmartNodeLabelModelParameter labelRatioX="0.0" labelRatioY="0.0" nodeRatioX="0.0" nodeRatioY="0.0" offsetX="0.0" offsetY="0.0" upX="0.0" upY="-1.0"/>
                </y:ModelParameter>
              </y:NodeLabel>
              <y:Shape type="rectangle"/>
            </y:ShapeNode>
          </data>
        </node>
        <node id="n8::n2">
          <data key="d6">
            <y:ShapeNode>
              <y:Geometry height="186.73999999999995" width="179.3584000000002" x="493.4569153701779" y="-201.74023809523806"/>
              <y:Fill color="#FFFF99" transparent="false"/>
              <y:BorderStyle color="#000000" raised="false" type="line" width="1.0"/>
              <y:NodeLabel alignment="left" autoSizePolicy="content" fontFamily="Dialog" fontSize="12" fontStyle="plain" hasBackgroundColor="false" hasLineColor="false" height="157.65625" horizontalTextPosition="center" iconTextGap="4" modelName="internal" modelPosition="l" textColor="#000000" verticalTextPosition="bottom" visible="true" width="139.099609375" x="4.0" xml:space="preserve" y="14.541874999999976">OffsetPatternFivePoint

Properties:
* duration

Data Attributes:
* subscans[list]
* offset_az_onsource
* offset_el_onsource
* offset_az_offsource
* offset_el_offsource</y:NodeLabel>
              <y:NodeLabel alignment="center" autoSizePolicy="content" fontFamily="Dialog" fontSize="12" fontStyle="plain" hasBackgroundColor="false" hasLineColor="false" hasText="false" height="4.0" horizontalTextPosition="center" iconTextGap="4" modelName="custom" textColor="#000000" verticalTextPosition="bottom" visible="true" width="4.0" x="87.6792000000001" y="91.36999999999998">
                <y:LabelModel>
                  <y:SmartNodeLabelModel distance="4.0"/>
                </y:LabelModel>
                <y:ModelParameter>
                  <y:SmartNodeLabelModelParameter labelRatioX="0.0" labelRatioY="0.0" nodeRatioX="0.0" nodeRatioY="0.0" offsetX="0.0" offsetY="0.0" upX="0.0" upY="-1.0"/>
                </y:ModelParameter>
              </y:NodeLabel>
              <y:Shape type="rectangle"/>
            </y:ShapeNode>
          </data>
        </node>
      </graph>
    </node>
    <node id="n9" yfiles.foldertype="group">
      <data key="d4" xml:space="preserve"/>
      <data key="d6">
        <y:ProxyAutoBoundsNode>
          <y:Realizers active="0">
            <y:GroupNode>
              <y:Geometry height="697.6138888888889" width="209.35840000000013" x="478.4569153701779" y="-1332.0452380952381"/>
              <y:Fill color="#F5F5F5" transparent="false"/>
              <y:BorderStyle color="#000000" type="dashed" width="1.0"/>
              <y:NodeLabel alignment="right" autoSizePolicy="node_width" backgroundColor="#EBEBEB" borderDistance="0.0" fontFamily="Dialog" fontSize="15" fontStyle="plain" hasLineColor="false" height="21.4609375" horizontalTextPosition="center" iconTextGap="4" modelName="internal" modelPosition="t" textColor="#000000" verticalTextPosition="bottom" visible="true" width="209.35840000000013" x="0.0" xml:space="preserve" y="0.0">ACU Program Track </y:NodeLabel>
              <y:Shape type="roundrectangle"/>
              <y:State closed="false" closedHeight="50.0" closedWidth="50.0" innerGraphDisplayEnabled="false"/>
              <y:Insets bottom="15" bottomF="15.0" left="15" leftF="15.0" right="15" rightF="15.0" top="15" topF="15.0"/>
              <y:BorderInsets bottom="0" bottomF="2.3809523815998546E-4" left="0" leftF="0.0" right="0" rightF="0.0" top="0" topF="3.2440476184092404E-4"/>
            </y:GroupNode>
            <y:GroupNode>
              <y:Geometry height="50.0" width="50.0" x="0.0" y="60.0"/>
              <y:Fill color="#F5F5F5" transparent="false"/>
              <y:BorderStyle color="#000000" type="dashed" width="1.0"/>
              <y:NodeLabel alignment="right" autoSizePolicy="node_width" backgroundColor="#EBEBEB" borderDistance="0.0" fontFamily="Dialog" fontSize="15" fontStyle="plain" hasLineColor="false" height="21.4609375" horizontalTextPosition="center" iconTextGap="4" modelName="internal" modelPosition="t" textColor="#000000" verticalTextPosition="bottom" visible="true" width="65.201171875" x="-7.6005859375" xml:space="preserve" y="0.0">Folder 2</y:NodeLabel>
              <y:Shape type="roundrectangle"/>
              <y:State closed="true" closedHeight="50.0" closedWidth="50.0" innerGraphDisplayEnabled="false"/>
              <y:Insets bottom="5" bottomF="5.0" left="5" leftF="5.0" right="5" rightF="5.0" top="5" topF="5.0"/>
              <y:BorderInsets bottom="0" bottomF="0.0" left="0" leftF="0.0" right="0" rightF="0.0" top="0" topF="0.0"/>
            </y:GroupNode>
          </y:Realizers>
        </y:ProxyAutoBoundsNode>
      </data>
      <graph edgedefault="directed" id="n9:">
        <node id="n9::n0">
          <data key="d6">
            <y:ShapeNode>
              <y:Geometry height="128.23999999999995" width="179.3584000000002" x="493.4569153701779" y="-1019.9116666666666"/>
              <y:Fill color="#FFFF99" transparent="false"/>
              <y:BorderStyle color="#000000" raised="false" type="line" width="1.0"/>
              <y:NodeLabel alignment="left" autoSizePolicy="content" fontFamily="Dialog" fontSize="12" fontStyle="plain" hasBackgroundColor="false" hasLineColor="false" height="115.75" horizontalTextPosition="center" iconTextGap="4" modelName="internal" modelPosition="l" textColor="#000000" verticalTextPosition="bottom" visible="true" width="106.22265625" x="4.0" xml:space="preserve" y="6.2450000000000045">TrackCoordHO

Properties:
* initial_az
* initial_el

Methods:
* start_tracking()</y:NodeLabel>
              <y:NodeLabel alignment="center" autoSizePolicy="content" fontFamily="Dialog" fontSize="12" fontStyle="plain" hasBackgroundColor="false" hasLineColor="false" hasText="false" height="4.0" horizontalTextPosition="center" iconTextGap="4" modelName="custom" textColor="#000000" verticalTextPosition="bottom" visible="true" width="4.0" x="87.6792000000001" y="62.120000000000005">
                <y:LabelModel>
                  <y:SmartNodeLabelModel distance="4.0"/>
                </y:LabelModel>
                <y:ModelParameter>
                  <y:SmartNodeLabelModelParameter labelRatioX="0.0" labelRatioY="0.0" nodeRatioX="0.0" nodeRatioY="0.0" offsetX="0.0" offsetY="0.0" upX="0.0" upY="-1.0"/>
                </y:ModelParameter>
              </y:NodeLabel>
              <y:Shape type="rectangle"/>
            </y:ShapeNode>
          </data>
        </node>
        <node id="n9::n1">
          <data key="d6">
            <y:ShapeNode>
              <y:Geometry height="212.23999999999995" width="179.3584000000002" x="493.4569153701779" y="-861.6715873015874"/>
              <y:Fill color="#FFFF99" transparent="false"/>
              <y:BorderStyle color="#000000" raised="false" type="line" width="1.0"/>
              <y:NodeLabel alignment="left" autoSizePolicy="content" fontFamily="Dialog" fontSize="12" fontStyle="plain" hasBackgroundColor="false" hasLineColor="false" height="199.5625" horizontalTextPosition="center" iconTextGap="4" modelName="internal" modelPosition="l" textColor="#000000" verticalTextPosition="bottom" visible="true" width="106.22265625" x="4.0" xml:space="preserve" y="6.3387500000000045">TrackCoordTLE

Properties:
* initial_az
* initial_el

Data Attributes:
* tle_line0
* tle_line1
* tle_line2

Methods:
* start_tracking()
* tle_to_AltAz()</y:NodeLabel>
              <y:NodeLabel alignment="center" autoSizePolicy="content" fontFamily="Dialog" fontSize="12" fontStyle="plain" hasBackgroundColor="false" hasLineColor="false" hasText="false" height="4.0" horizontalTextPosition="center" iconTextGap="4" modelName="custom" textColor="#000000" verticalTextPosition="bottom" visible="true" width="4.0" x="87.6792000000001" y="104.12">
                <y:LabelModel>
                  <y:SmartNodeLabelModel distance="4.0"/>
                </y:LabelModel>
                <y:ModelParameter>
                  <y:SmartNodeLabelModelParameter labelRatioX="0.0" labelRatioY="0.0" nodeRatioX="0.0" nodeRatioY="0.0" offsetX="0.0" offsetY="0.0" upX="0.0" upY="-1.0"/>
                </y:ModelParameter>
              </y:NodeLabel>
              <y:Shape type="rectangle"/>
            </y:ShapeNode>
          </data>
        </node>
        <node id="n9::n2">
          <data key="d6">
            <y:ShapeNode>
              <y:Geometry height="245.67192063492055" width="179.3584000000002" x="493.4569153701779" y="-1295.5839761904763"/>
              <y:Fill color="#FFFF99" transparent="false"/>
              <y:BorderStyle color="#000000" raised="false" type="line" width="1.0"/>
              <y:NodeLabel alignment="left" autoSizePolicy="content" fontFamily="Dialog" fontSize="12" fontStyle="plain" hasBackgroundColor="false" hasLineColor="false" height="241.46875" horizontalTextPosition="center" iconTextGap="4" modelName="internal" modelPosition="l" textColor="#000000" verticalTextPosition="bottom" visible="true" width="149.5703125" x="4.0" xml:space="preserve" y="2.1015853174603762">TrackCoordEQ

Properties:
* initial_az
* initial_el

Data Attributes:
* ra
* dec
* basis_frame
* native_frame
* epoch

Methods:
* start_tracking()
* radec_to_azel()
* basisEQ_to_nativeEQ()</y:NodeLabel>
              <y:NodeLabel alignment="center" autoSizePolicy="content" fontFamily="Dialog" fontSize="12" fontStyle="plain" hasBackgroundColor="false" hasLineColor="false" hasText="false" height="4.0" horizontalTextPosition="center" iconTextGap="4" modelName="custom" textColor="#000000" verticalTextPosition="bottom" visible="true" width="4.0" x="87.6792000000001" y="120.83596031746038">
                <y:LabelModel>
                  <y:SmartNodeLabelModel distance="4.0"/>
                </y:LabelModel>
                <y:ModelParameter>
                  <y:SmartNodeLabelModelParameter labelRatioX="0.0" labelRatioY="0.0" nodeRatioX="0.0" nodeRatioY="0.0" offsetX="0.0" offsetY="0.0" upX="0.0" upY="-1.0"/>
                </y:ModelParameter>
              </y:NodeLabel>
              <y:Shape type="rectangle"/>
            </y:ShapeNode>
          </data>
        </node>
      </graph>
    </node>
    <edge id="e0" source="n0" target="n6">
      <data key="d10">
        <y:PolyLineEdge>
          <y:Path sx="89.6792000000001" sy="-128.34915476190474" tx="-89.6792000000001" ty="-0.0">
            <y:Point x="194.8584000000002" y="-768.8001468253968"/>
            <y:Point x="209.29342884254459" y="-783.2351756679412"/>
            <y:Point x="209.29342884254459" y="-941.3566378241222"/>
            <y:Point x="223.72845768508898" y="-955.7916666666666"/>
          </y:Path>
          <y:LineStyle color="#000000" type="line" width="1.0"/>
          <y:Arrows source="none" target="standard"/>
          <y:BendStyle smoothed="false"/>
        </y:PolyLineEdge>
      </data>
    </edge>
    <edge id="e1" source="n0" target="n7">
      <data key="d10">
        <y:PolyLineEdge>
          <y:Path sx="89.6792000000001" sy="128.34915476190474" tx="-89.6792000000001" ty="-0.0">
            <y:Point x="194.8584000000002" y="-512.1018373015874"/>
            <y:Point x="209.29342884254459" y="-497.66680845904295"/>
            <y:Point x="209.29342884254459" y="-339.54534630286184"/>
            <y:Point x="223.72845768508898" y="-325.11031746031745"/>
          </y:Path>
          <y:LineStyle color="#000000" type="line" width="1.0"/>
          <y:Arrows source="none" target="standard"/>
          <y:BendStyle smoothed="false"/>
        </y:PolyLineEdge>
      </data>
    </edge>
    <edge id="e2" source="n6" target="n9::n0">
      <data key="d10">
        <y:PolyLineEdge>
          <y:Path sx="89.6792000000001" sy="-0.0" tx="-89.6792000000001" ty="-0.0"/>
          <y:LineStyle color="#000000" type="line" width="1.0"/>
          <y:Arrows source="none" target="standard"/>
          <y:BendStyle smoothed="false"/>
        </y:PolyLineEdge>
      </data>
    </edge>
    <edge id="e3" source="n6" target="n9::n1">
      <data key="d10">
        <y:PolyLineEdge>
          <y:Path sx="89.6792000000001" sy="26.079999999999984" tx="-89.6792000000001" ty="-0.0">
            <y:Point x="434.08685768508917" y="-929.7116666666666"/>
            <y:Point x="448.52188652763357" y="-915.2766378241222"/>
            <y:Point x="448.52188652763357" y="-769.9866161441317"/>
            <y:Point x="462.95691537017797" y="-755.5515873015873"/>
          </y:Path>
          <y:LineStyle color="#000000" type="line" width="1.0"/>
          <y:Arrows source="none" target="standard"/>
          <y:BendStyle smoothed="false"/>
        </y:PolyLineEdge>
      </data>
    </edge>
    <edge id="e4" source="n6" target="n9::n2">
      <data key="d10">
        <y:PolyLineEdge>
          <y:Path sx="89.6792000000001" sy="-26.079999999999984" tx="-89.6792000000001" ty="-0.0">
            <y:Point x="434.08685768508917" y="-981.8716666666667"/>
            <y:Point x="448.52188652763357" y="-996.3066955092111"/>
            <y:Point x="448.52188652763357" y="-1158.3129870304715"/>
            <y:Point x="462.95691537017797" y="-1172.748015873016"/>
          </y:Path>
          <y:LineStyle color="#000000" type="line" width="1.0"/>
          <y:Arrows source="none" target="standard"/>
          <y:BendStyle smoothed="false"/>
        </y:PolyLineEdge>
      </data>
    </edge>
    <edge id="e5" source="n7" target="n8::n0">
      <data key="d10">
        <y:PolyLineEdge>
          <y:Path sx="89.6792000000001" sy="-26.079999999999984" tx="-89.6792000000001" ty="-0.0">
            <y:Point x="434.08685768508917" y="-351.19031746031743"/>
            <y:Point x="448.52188652763357" y="-365.62534630286183"/>
            <y:Point x="448.52188652763357" y="-493.79036798285244"/>
            <y:Point x="462.95691537017797" y="-508.22539682539684"/>
          </y:Path>
          <y:LineStyle color="#000000" type="line" width="1.0"/>
          <y:Arrows source="none" target="standard"/>
          <y:BendStyle smoothed="false"/>
        </y:PolyLineEdge>
      </data>
    </edge>
    <edge id="e6" source="n7" target="n8::n1">
      <data key="d10">
        <y:PolyLineEdge>
          <y:Path sx="89.6792000000001" sy="-0.0" tx="-89.6792000000001" ty="-0.0"/>
          <y:LineStyle color="#000000" type="line" width="1.0"/>
          <y:Arrows source="none" target="standard"/>
          <y:BendStyle smoothed="false"/>
        </y:PolyLineEdge>
      </data>
    </edge>
    <edge id="e7" source="n7" target="n8::n2">
      <data key="d10">
        <y:PolyLineEdge>
          <y:Path sx="89.6792000000001" sy="26.079999999999984" tx="-89.6792000000001" ty="-0.0">
            <y:Point x="434.08685768508917" y="-299.03031746031746"/>
            <y:Point x="448.52188652763357" y="-284.59528861777306"/>
            <y:Point x="448.52188652763357" y="-122.80526693778249"/>
            <y:Point x="462.95691537017797" y="-108.3702380952381"/>
          </y:Path>
          <y:LineStyle color="#000000" type="line" width="1.0"/>
          <y:Arrows source="none" target="standard"/>
          <y:BendStyle smoothed="false"/>
        </y:PolyLineEdge>
      </data>
    </edge>
    <edge id="e8" source="n9::n0" target="n1">
      <data key="d10">
        <y:PolyLineEdge>
          <y:Path sx="89.6792000000001" sy="-32.05999999999999" tx="-89.67919999999998" ty="-12.49599999999991"/>
          <y:LineStyle color="#000000" type="line" width="1.0"/>
          <y:Arrows source="none" target="standard"/>
          <y:BendStyle smoothed="false"/>
        </y:PolyLineEdge>
      </data>
    </edge>
    <edge id="e9" source="n9::n1" target="n2">
      <data key="d10">
        <y:PolyLineEdge>
          <y:Path sx="89.6792000000001" sy="-53.05999999999999" tx="-89.67919999999998" ty="-12.49599999999991">
            <y:Point x="764.185373055267" y="-808.6115873015873"/>
            <y:Point x="778.6204018978113" y="-794.1765584590429"/>
            <y:Point x="778.6204018978113" y="-670.4131716996872"/>
            <y:Point x="793.0554307403557" y="-655.9781428571428"/>
          </y:Path>
          <y:LineStyle color="#000000" type="line" width="1.0"/>
          <y:Arrows source="none" target="standard"/>
          <y:BendStyle smoothed="false"/>
        </y:PolyLineEdge>
      </data>
    </edge>
    <edge id="e10" source="n9::n0" target="n3">
      <data key="d10">
        <y:PolyLineEdge>
          <y:Path sx="89.6792000000001" sy="32.05999999999999" tx="-89.6792000000001" ty="-12.49599999999991">
            <y:Point x="703.3153153701782" y="-923.7316666666667"/>
            <y:Point x="719.1795534654163" y="-907.8674285714285"/>
          </y:Path>
          <y:LineStyle color="#000000" type="line" width="1.0"/>
          <y:Arrows source="none" target="standard"/>
          <y:BendStyle smoothed="false"/>
        </y:PolyLineEdge>
      </data>
    </edge>
    <edge id="e11" source="n9::n1" target="n4">
      <data key="d10">
        <y:PolyLineEdge>
          <y:Path sx="89.6792000000001" sy="53.059999999999974" tx="-89.6792000000001" ty="-12.49599999999991">
            <y:Point x="703.3153153701782" y="-702.4915873015874"/>
            <y:Point x="717.7503442127226" y="-688.056558459043"/>
            <y:Point x="717.7503442127226" y="-317.8524574139729"/>
            <y:Point x="732.185373055267" y="-303.4174285714285"/>
          </y:Path>
          <y:LineStyle color="#000000" type="line" width="1.0"/>
          <y:Arrows source="none" target="standard"/>
          <y:BendStyle smoothed="false"/>
        </y:PolyLineEdge>
      </data>
    </edge>
    <edge id="e12" source="n8::n0" target="n1">
      <data key="d10">
        <y:PolyLineEdge>
          <y:Path sx="89.6792000000001" sy="-29.872499999999988" tx="-89.67919999999998" ty="12.49599999999991">
            <y:Point x="733.7503442127226" y="-538.0978968253968"/>
            <y:Point x="748.185373055267" y="-552.5329256679412"/>
            <y:Point x="748.185373055267" y="-948.4245267130113"/>
            <y:Point x="762.6204018978113" y="-962.8595555555557"/>
          </y:Path>
          <y:LineStyle color="#000000" type="line" width="1.0"/>
          <y:Arrows source="none" target="standard"/>
          <y:BendStyle smoothed="false"/>
        </y:PolyLineEdge>
      </data>
    </edge>
    <edge id="e13" source="n8::n0" target="n2">
      <data key="d10">
        <y:PolyLineEdge>
          <y:Path sx="89.6792000000001" sy="29.872499999999988" tx="-89.67919999999998" ty="12.49599999999991">
            <y:Point x="733.7503442127226" y="-478.35289682539684"/>
            <y:Point x="764.185373055267" y="-508.78792566794124"/>
            <y:Point x="764.185373055267" y="-611.108085172054"/>
            <y:Point x="784.063430740356" y="-630.986142857143"/>
          </y:Path>
          <y:LineStyle color="#000000" type="line" width="1.0"/>
          <y:Arrows source="none" target="standard"/>
          <y:BendStyle smoothed="false"/>
        </y:PolyLineEdge>
      </data>
    </edge>
    <edge id="e14" source="n8::n1" target="n3">
      <data key="d10">
        <y:PolyLineEdge>
          <y:Path sx="89.6792000000001" sy="-46.68499999999999" tx="-89.6792000000001" ty="12.49599999999991">
            <y:Point x="733.7503442127226" y="-371.79531746031745"/>
            <y:Point x="809.0554307403557" y="-447.10040398795064"/>
            <y:Point x="809.0554307403557" y="-868.4403997288844"/>
            <y:Point x="823.4904595829001" y="-882.8754285714288"/>
          </y:Path>
          <y:LineStyle color="#000000" type="line" width="1.0"/>
          <y:Arrows source="none" target="standard"/>
          <y:BendStyle smoothed="false"/>
        </y:PolyLineEdge>
      </data>
    </edge>
    <edge id="e15" source="n8::n1" target="n4">
      <data key="d10">
        <y:PolyLineEdge>
          <y:Path sx="89.6792000000001" sy="46.684999999999974" tx="-89.6792000000001" ty="12.49599999999991"/>
          <y:LineStyle color="#000000" type="line" width="1.0"/>
          <y:Arrows source="none" target="standard"/>
          <y:BendStyle smoothed="false"/>
        </y:PolyLineEdge>
      </data>
    </edge>
  </graph>
  <data key="d7">
    <y:Resources/>
  </data>
</graphml>
